dsc/arch_sweep/img_proc_build/roberts_cross/dsc_serial/tb_top.vcd
$date
	Sun Dec 20 21:34:56 2020
$end

$version
	Synopsys VCS version K-2015.09-SP1_Full64
$end

$timescale
	100ps
$end

$comment Csum: 1 6b39b7907525aad1 $end


$scope module tb_top $end
$var integer 32 ! NUM_TESTS $end
$var integer 32 " CYCLES_OVERRIDE $end
$var integer 32 # r $end
$var integer 32 $ calc_mae $end
$var integer 32 % debug_on $end
$var reg 1 & gclk $end
$var reg 1 ' en $end
$var reg 1 ( rst $end
$var reg 8 ) bin_in00 [7:0] $end
$var reg 8 * bin_in01 [7:0] $end
$var reg 8 + bin_in10 [7:0] $end
$var reg 8 , bin_in11 [7:0] $end
$var wire 8 - bin_data_out [7:0] $end
$var wire 1 . op_finished $end
$var reg 64 / expected_result [63:0] $end
$var reg 64 0 outval_int [63:0] $end
$var reg 64 1 sub [63:0] $end
$var real 64 2 expected_result_frac $end
$var real 64 3 frac_data_out $end
$var reg 64 4 denom [63:0] $end
$var wire 18 5 cycle_count [17:0] $end
$var wire 1 6 cycle_count_overflow $end
$var integer 32 7 test $end
$var integer 32 8 wx $end
$var integer 32 9 wy $end
$var real 64 : cycle_count_acc $end
$var real 64 ; absolute_error_acc $end

$scope begin unnamed$$_9 $end
$var real 64 < ae $end
$upscope $end


$scope module core_inst $end
$var wire 1 & gclk $end
$var wire 1 ( rst $end
$var wire 1 ' en $end
$var wire 8 ) bin_in00 [7:0] $end
$var wire 8 * bin_in01 [7:0] $end
$var wire 8 + bin_in10 [7:0] $end
$var wire 8 , bin_in11 [7:0] $end
$var wire 8 - bin_data_out [7:0] $end
$var wire 1 . op_finished $end

$scope module dut $end
$var wire 8 ) bin_in00 [7:0] $end
$var wire 8 * bin_in01 [7:0] $end
$var wire 8 + bin_in10 [7:0] $end
$var wire 8 , bin_in11 [7:0] $end
$var wire 1 & clk $end
$var wire 1 ( rst $end
$var wire 1 ' en $end
$var wire 8 - bin_data_out [7:0] $end
$var wire 1 . done $end
$var wire 8 = input_counter_out [7:0] $end
$var wire 1 > sng_ov $end
$var wire 1 ? bs_in00 $end
$var wire 1 @ bs_in01 $end
$var wire 1 A bs_in10 $end
$var wire 1 B bs_in11 $end
$var wire 1 C mx $end
$var wire 1 D my $end
$var wire 1 E dummy_ov $end

$scope module input_counter $end
$var reg 8 F countval [7:0] $end
$var reg 1 G overflow $end
$var wire 1 & clk $end
$var wire 1 ( rst $end
$var wire 1 ' en $end
$upscope $end


$scope module comp00 $end
$var wire 8 ) bin [7:0] $end
$var wire 8 = reference [7:0] $end
$var wire 1 ? result $end
$upscope $end


$scope module comp01 $end
$var wire 8 * bin [7:0] $end
$var wire 8 = reference [7:0] $end
$var wire 1 @ result $end
$upscope $end


$scope module comp10 $end
$var wire 8 + bin [7:0] $end
$var wire 8 = reference [7:0] $end
$var wire 1 A result $end
$upscope $end


$scope module comp11 $end
$var wire 8 , bin [7:0] $end
$var wire 8 = reference [7:0] $end
$var wire 1 B result $end
$upscope $end


$scope module stoch2bin $end
$var wire 1 & clk $end
$var wire 1 ( rst $end
$var wire 2 H data_in [1:0] $end
$var wire 8 - countval [7:0] $end
$var wire 1 E overflow $end
$var wire 2 I par_acc_int [1:0] $end
$var wire 1 J ctr_en $end

$scope module par_ctr $end
$var wire 2 H a [1:0] $end
$var wire 2 I y [1:0] $end

$scope module ha0 $end
$var wire 1 K a $end
$var wire 1 L b $end
$var wire 1 M s $end
$var wire 1 N cout $end
$upscope $end

$upscope $end


$scope module ctr $end
$var reg 8 O countval [7:0] $end
$var reg 1 E overflow $end
$var reg 9 P countval_int [8:0] $end
$var wire 1 & clk $end
$var wire 1 ( rst $end
$var wire 1 J en $end
$var wire 8 Q data_in [7:0] $end
$upscope $end

$upscope $end

$upscope $end

$upscope $end


$scope module cycle_counter $end
$var reg 17 R countval [16:0] $end
$var reg 1 6 overflow $end
$var wire 1 & clk $end
$var wire 1 ( rst $end
$var wire 1 ' en $end
$upscope $end

$upscope $end

$enddefinitions $end

#0
$dumpvars
x@
xA
xB
0E
xJ
06
0.
0'
0&
xC
xD
0G
x?
1(
0>
xK
xL
xM
xN
b00000000000000000000000100000000 "
b00000000000000000000000001100100 !
b00000000 -
bxxxxxxxx )
bxxxxxxxx *
bxxxxxxxx +
bxxxxxxxx ,
b00000000000000000000000000000001 $
b00000000 F
b000000000 P
b00000000 O
b000000xx Q
b000000000000000000 5
b00000000000000000 R
bxx H
b00000000000000000000000000000001 %
b00000000 =
bxx I
b00000000000000000000000000000001 #
bxxxxxxxxxxxxxxxxxxxxxxxxxxxxxxxx 7
bxxxxxxxxxxxxxxxxxxxxxxxxxxxxxxxx 8
bxxxxxxxxxxxxxxxxxxxxxxxxxxxxxxxx 9
b0000000000000000000000000000000000000000000000000000000000000000 4
b0000000000000000000000000000000000000000000000000000000000000000 /
b0000000000000000000000000000000000000000000000000000000000000000 0
b0000000000000000000000000000000000000000000000000000000000000000 1
r0.000000000000000  ;
r0.000000000000000  :
r0.000000000000000  2
r0.000000000000000  3
r0.000000000000000  <
$end
#100
1&
0(
#200
0&
1'
b00000000000000000000000000000000 7
b00100100 )
1?
b10000001 *
1@
b00001001 +
1A
b01100011 ,
1B
0D
bx0 H
0K
0C
b00 H
0L
b00 I
0M
0N
0J
b00000000 Q
#300
1&
b00000001 F
b00000001 =
b00000000000000001 R
b000000000000000001 5
#400
0&
b00000000000000000000000000111111 8
b00000000000000000000000001111000 9
b0000000000000000000000000000000000000000000000000000000010110111 /
#500
1&
b00000010 F
b00000010 =
b00000000000000010 R
b000000000000000010 5
#600
0&
#700
1&
b00000011 F
b00000011 =
b00000000000000011 R
b000000000000000011 5
#800
0&
#900
1&
b00000100 F
b00000100 =
b00000000000000100 R
b000000000000000100 5
#1000
0&
#1100
1&
b00000101 F
b00000101 =
b00000000000000101 R
b000000000000000101 5
#1200
0&
#1300
1&
b00000110 F
b00000110 =
b00000000000000110 R
b000000000000000110 5
#1400
0&
#1500
1&
b00000111 F
b00000111 =
b00000000000000111 R
b000000000000000111 5
#1600
0&
#1700
1&
b00001000 F
b00001000 =
b00000000000001000 R
b000000000000001000 5
#1800
0&
#1900
1&
b00001001 F
b00001001 =
0A
b00000000000001001 R
b000000000000001001 5
1D
b01 H
1K
b01 I
1M
1J
b00000001 Q
#2000
0&
#2100
1&
b00001010 F
b00001010 =
b00000000000001010 R
b000000000000001010 5
b000000001 P
b00000001 O
b00000001 -
#2200
0&
#2300
1&
b00001011 F
b00001011 =
b00000000000001011 R
b000000000000001011 5
b000000010 P
b00000010 O
b00000010 -
#2400
0&
#2500
1&
b00001100 F
b00001100 =
b00000000000001100 R
b000000000000001100 5
b000000011 P
b00000011 O
b00000011 -
#2600
0&
#2700
1&
b00001101 F
b00001101 =
b00000000000001101 R
b000000000000001101 5
b000000100 P
b00000100 O
b00000100 -
#2800
0&
#2900
1&
b00001110 F
b00001110 =
b00000000000001110 R
b000000000000001110 5
b000000101 P
b00000101 O
b00000101 -
#3000
0&
#3100
1&
b00001111 F
b00001111 =
b00000000000001111 R
b000000000000001111 5
b000000110 P
b00000110 O
b00000110 -
#3200
0&
#3300
1&
b00010000 F
b00010000 =
b00000000000010000 R
b000000000000010000 5
b000000111 P
b00000111 O
b00000111 -
#3400
0&
#3500
1&
b00010001 F
b00010001 =
b00000000000010001 R
b000000000000010001 5
b000001000 P
b00001000 O
b00001000 -
#3600
0&
#3700
1&
b00010010 F
b00010010 =
b00000000000010010 R
b000000000000010010 5
b000001001 P
b00001001 O
b00001001 -
#3800
0&
#3900
1&
b00010011 F
b00010011 =
b00000000000010011 R
b000000000000010011 5
b000001010 P
b00001010 O
b00001010 -
#4000
0&
#4100
1&
b00010100 F
b00010100 =
b00000000000010100 R
b000000000000010100 5
b000001011 P
b00001011 O
b00001011 -
#4200
0&
#4300
1&
b00010101 F
b00010101 =
b00000000000010101 R
b000000000000010101 5
b000001100 P
b00001100 O
b00001100 -
#4400
0&
#4500
1&
b00010110 F
b00010110 =
b00000000000010110 R
b000000000000010110 5
b000001101 P
b00001101 O
b00001101 -
#4600
0&
#4700
1&
b00010111 F
b00010111 =
b00000000000010111 R
b000000000000010111 5
b000001110 P
b00001110 O
b00001110 -
#4800
0&
#4900
1&
b00011000 F
b00011000 =
b00000000000011000 R
b000000000000011000 5
b000001111 P
b00001111 O
b00001111 -
#5000
0&
#5100
1&
b00011001 F
b00011001 =
b00000000000011001 R
b000000000000011001 5
b000010000 P
b00010000 O
b00010000 -
#5200
0&
#5300
1&
b00011010 F
b00011010 =
b00000000000011010 R
b000000000000011010 5
b000010001 P
b00010001 O
b00010001 -
#5400
0&
#5500
1&
b00011011 F
b00011011 =
b00000000000011011 R
b000000000000011011 5
b000010010 P
b00010010 O
b00010010 -
#5600
0&
#5700
1&
b00011100 F
b00011100 =
b00000000000011100 R
b000000000000011100 5
b000010011 P
b00010011 O
b00010011 -
#5800
0&
#5900
1&
b00011101 F
b00011101 =
b00000000000011101 R
b000000000000011101 5
b000010100 P
b00010100 O
b00010100 -
#6000
0&
#6100
1&
b00011110 F
b00011110 =
b00000000000011110 R
b000000000000011110 5
b000010101 P
b00010101 O
b00010101 -
#6200
0&
#6300
1&
b00011111 F
b00011111 =
b00000000000011111 R
b000000000000011111 5
b000010110 P
b00010110 O
b00010110 -
#6400
0&
#6500
1&
b00100000 F
b00100000 =
b00000000000100000 R
b000000000000100000 5
b000010111 P
b00010111 O
b00010111 -
#6600
0&
#6700
1&
b00100001 F
b00100001 =
b00000000000100001 R
b000000000000100001 5
b000011000 P
b00011000 O
b00011000 -
#6800
0&
#6900
1&
b00100010 F
b00100010 =
b00000000000100010 R
b000000000000100010 5
b000011001 P
b00011001 O
b00011001 -
#7000
0&
#7100
1&
b00100011 F
b00100011 =
b00000000000100011 R
b000000000000100011 5
b000011010 P
b00011010 O
b00011010 -
#7200
0&
#7300
1&
b00100100 F
b00100100 =
0?
b00000000000100100 R
b000000000000100100 5
b000011011 P
b00011011 O
b00011011 -
1C
b11 H
1L
b10 I
0M
1N
b00000010 Q
#7400
0&
#7500
1&
b00100101 F
b00100101 =
b00000000000100101 R
b000000000000100101 5
b000011101 P
b00011101 O
b00011101 -
#7600
0&
#7700
1&
b00100110 F
b00100110 =
b00000000000100110 R
b000000000000100110 5
b000011111 P
b00011111 O
b00011111 -
#7800
0&
#7900
1&
b00100111 F
b00100111 =
b00000000000100111 R
b000000000000100111 5
b000100001 P
b00100001 O
b00100001 -
#8000
0&
#8100
1&
b00101000 F
b00101000 =
b00000000000101000 R
b000000000000101000 5
b000100011 P
b00100011 O
b00100011 -
#8200
0&
#8300
1&
b00101001 F
b00101001 =
b00000000000101001 R
b000000000000101001 5
b000100101 P
b00100101 O
b00100101 -
#8400
0&
#8500
1&
b00101010 F
b00101010 =
b00000000000101010 R
b000000000000101010 5
b000100111 P
b00100111 O
b00100111 -
#8600
0&
#8700
1&
b00101011 F
b00101011 =
b00000000000101011 R
b000000000000101011 5
b000101001 P
b00101001 O
b00101001 -
#8800
0&
#8900
1&
b00101100 F
b00101100 =
b00000000000101100 R
b000000000000101100 5
b000101011 P
b00101011 O
b00101011 -
#9000
0&
#9100
1&
b00101101 F
b00101101 =
b00000000000101101 R
b000000000000101101 5
b000101101 P
b00101101 O
b00101101 -
#9200
0&
#9300
1&
b00101110 F
b00101110 =
b00000000000101110 R
b000000000000101110 5
b000101111 P
b00101111 O
b00101111 -
#9400
0&
#9500
1&
b00101111 F
b00101111 =
b00000000000101111 R
b000000000000101111 5
b000110001 P
b00110001 O
b00110001 -
#9600
0&
#9700
1&
b00110000 F
b00110000 =
b00000000000110000 R
b000000000000110000 5
b000110011 P
b00110011 O
b00110011 -
#9800
0&
#9900
1&
b00110001 F
b00110001 =
b00000000000110001 R
b000000000000110001 5
b000110101 P
b00110101 O
b00110101 -
#10000
0&
#10100
1&
b00110010 F
b00110010 =
b00000000000110010 R
b000000000000110010 5
b000110111 P
b00110111 O
b00110111 -
#10200
0&
#10300
1&
b00110011 F
b00110011 =
b00000000000110011 R
b000000000000110011 5
b000111001 P
b00111001 O
b00111001 -
#10400
0&
#10500
1&
b00110100 F
b00110100 =
b00000000000110100 R
b000000000000110100 5
b000111011 P
b00111011 O
b00111011 -
#10600
0&
#10700
1&
b00110101 F
b00110101 =
b00000000000110101 R
b000000000000110101 5
b000111101 P
b00111101 O
b00111101 -
#10800
0&
#10900
1&
b00110110 F
b00110110 =
b00000000000110110 R
b000000000000110110 5
b000111111 P
b00111111 O
b00111111 -
#11000
0&
#11100
1&
b00110111 F
b00110111 =
b00000000000110111 R
b000000000000110111 5
b001000001 P
b01000001 O
b01000001 -
#11200
0&
#11300
1&
b00111000 F
b00111000 =
b00000000000111000 R
b000000000000111000 5
b001000011 P
b01000011 O
b01000011 -
#11400
0&
#11500
1&
b00111001 F
b00111001 =
b00000000000111001 R
b000000000000111001 5
b001000101 P
b01000101 O
b01000101 -
#11600
0&
#11700
1&
b00111010 F
b00111010 =
b00000000000111010 R
b000000000000111010 5
b001000111 P
b01000111 O
b01000111 -
#11800
0&
#11900
1&
b00111011 F
b00111011 =
b00000000000111011 R
b000000000000111011 5
b001001001 P
b01001001 O
b01001001 -
#12000
0&
#12100
1&
b00111100 F
b00111100 =
b00000000000111100 R
b000000000000111100 5
b001001011 P
b01001011 O
b01001011 -
#12200
0&
#12300
1&
b00111101 F
b00111101 =
b00000000000111101 R
b000000000000111101 5
b001001101 P
b01001101 O
b01001101 -
#12400
0&
#12500
1&
b00111110 F
b00111110 =
b00000000000111110 R
b000000000000111110 5
b001001111 P
b01001111 O
b01001111 -
#12600
0&
#12700
1&
b00111111 F
b00111111 =
b00000000000111111 R
b000000000000111111 5
b001010001 P
b01010001 O
b01010001 -
#12800
0&
#12900
1&
b01000000 F
b01000000 =
b00000000001000000 R
b000000000001000000 5
b001010011 P
b01010011 O
b01010011 -
#13000
0&
#13100
1&
b01000001 F
b01000001 =
b00000000001000001 R
b000000000001000001 5
b001010101 P
b01010101 O
b01010101 -
#13200
0&
#13300
1&
b01000010 F
b01000010 =
b00000000001000010 R
b000000000001000010 5
b001010111 P
b01010111 O
b01010111 -
#13400
0&
#13500
1&
b01000011 F
b01000011 =
b00000000001000011 R
b000000000001000011 5
b001011001 P
b01011001 O
b01011001 -
#13600
0&
#13700
1&
b01000100 F
b01000100 =
b00000000001000100 R
b000000000001000100 5
b001011011 P
b01011011 O
b01011011 -
#13800
0&
#13900
1&
b01000101 F
b01000101 =
b00000000001000101 R
b000000000001000101 5
b001011101 P
b01011101 O
b01011101 -
#14000
0&
#14100
1&
b01000110 F
b01000110 =
b00000000001000110 R
b000000000001000110 5
b001011111 P
b01011111 O
b01011111 -
#14200
0&
#14300
1&
b01000111 F
b01000111 =
b00000000001000111 R
b000000000001000111 5
b001100001 P
b01100001 O
b01100001 -
#14400
0&
#14500
1&
b01001000 F
b01001000 =
b00000000001001000 R
b000000000001001000 5
b001100011 P
b01100011 O
b01100011 -
#14600
0&
#14700
1&
b01001001 F
b01001001 =
b00000000001001001 R
b000000000001001001 5
b001100101 P
b01100101 O
b01100101 -
#14800
0&
#14900
1&
b01001010 F
b01001010 =
b00000000001001010 R
b000000000001001010 5
b001100111 P
b01100111 O
b01100111 -
#15000
0&
#15100
1&
b01001011 F
b01001011 =
b00000000001001011 R
b000000000001001011 5
b001101001 P
b01101001 O
b01101001 -
#15200
0&
#15300
1&
b01001100 F
b01001100 =
b00000000001001100 R
b000000000001001100 5
b001101011 P
b01101011 O
b01101011 -
#15400
0&
#15500
1&
b01001101 F
b01001101 =
b00000000001001101 R
b000000000001001101 5
b001101101 P
b01101101 O
b01101101 -
#15600
0&
#15700
1&
b01001110 F
b01001110 =
b00000000001001110 R
b000000000001001110 5
b001101111 P
b01101111 O
b01101111 -
#15800
0&
#15900
1&
b01001111 F
b01001111 =
b00000000001001111 R
b000000000001001111 5
b001110001 P
b01110001 O
b01110001 -
#16000
0&
#16100
1&
b01010000 F
b01010000 =
b00000000001010000 R
b000000000001010000 5
b001110011 P
b01110011 O
b01110011 -
#16200
0&
#16300
1&
b01010001 F
b01010001 =
b00000000001010001 R
b000000000001010001 5
b001110101 P
b01110101 O
b01110101 -
#16400
0&
#16500
1&
b01010010 F
b01010010 =
b00000000001010010 R
b000000000001010010 5
b001110111 P
b01110111 O
b01110111 -
#16600
0&
#16700
1&
b01010011 F
b01010011 =
b00000000001010011 R
b000000000001010011 5
b001111001 P
b01111001 O
b01111001 -
#16800
0&
#16900
1&
b01010100 F
b01010100 =
b00000000001010100 R
b000000000001010100 5
b001111011 P
b01111011 O
b01111011 -
#17000
0&
#17100
1&
b01010101 F
b01010101 =
b00000000001010101 R
b000000000001010101 5
b001111101 P
b01111101 O
b01111101 -
#17200
0&
#17300
1&
b01010110 F
b01010110 =
b00000000001010110 R
b000000000001010110 5
b001111111 P
b01111111 O
b01111111 -
#17400
0&
#17500
1&
b01010111 F
b01010111 =
b00000000001010111 R
b000000000001010111 5
b010000001 P
b10000001 O
b10000001 -
#17600
0&
#17700
1&
b01011000 F
b01011000 =
b00000000001011000 R
b000000000001011000 5
b010000011 P
b10000011 O
b10000011 -
#17800
0&
#17900
1&
b01011001 F
b01011001 =
b00000000001011001 R
b000000000001011001 5
b010000101 P
b10000101 O
b10000101 -
#18000
0&
#18100
1&
b01011010 F
b01011010 =
b00000000001011010 R
b000000000001011010 5
b010000111 P
b10000111 O
b10000111 -
#18200
0&
#18300
1&
b01011011 F
b01011011 =
b00000000001011011 R
b000000000001011011 5
b010001001 P
b10001001 O
b10001001 -
#18400
0&
#18500
1&
b01011100 F
b01011100 =
b00000000001011100 R
b000000000001011100 5
b010001011 P
b10001011 O
b10001011 -
#18600
0&
#18700
1&
b01011101 F
b01011101 =
b00000000001011101 R
b000000000001011101 5
b010001101 P
b10001101 O
b10001101 -
#18800
0&
#18900
1&
b01011110 F
b01011110 =
b00000000001011110 R
b000000000001011110 5
b010001111 P
b10001111 O
b10001111 -
#19000
0&
#19100
1&
b01011111 F
b01011111 =
b00000000001011111 R
b000000000001011111 5
b010010001 P
b10010001 O
b10010001 -
#19200
0&
#19300
1&
b01100000 F
b01100000 =
b00000000001100000 R
b000000000001100000 5
b010010011 P
b10010011 O
b10010011 -
#19400
0&
#19500
1&
b01100001 F
b01100001 =
b00000000001100001 R
b000000000001100001 5
b010010101 P
b10010101 O
b10010101 -
#19600
0&
#19700
1&
b01100010 F
b01100010 =
b00000000001100010 R
b000000000001100010 5
b010010111 P
b10010111 O
b10010111 -
#19800
0&
#19900
1&
b01100011 F
b01100011 =
0B
b00000000001100011 R
b000000000001100011 5
b010011001 P
b10011001 O
b10011001 -
0C
b01 H
0L
b01 I
1M
0N
b00000001 Q
#20000
0&
#20100
1&
b01100100 F
b01100100 =
b00000000001100100 R
b000000000001100100 5
b010011010 P
b10011010 O
b10011010 -
#20200
0&
#20300
1&
b01100101 F
b01100101 =
b00000000001100101 R
b000000000001100101 5
b010011011 P
b10011011 O
b10011011 -
#20400
0&
#20500
1&
b01100110 F
b01100110 =
b00000000001100110 R
b000000000001100110 5
b010011100 P
b10011100 O
b10011100 -
#20600
0&
#20700
1&
b01100111 F
b01100111 =
b00000000001100111 R
b000000000001100111 5
b010011101 P
b10011101 O
b10011101 -
#20800
0&
#20900
1&
b01101000 F
b01101000 =
b00000000001101000 R
b000000000001101000 5
b010011110 P
b10011110 O
b10011110 -
#21000
0&
#21100
1&
b01101001 F
b01101001 =
b00000000001101001 R
b000000000001101001 5
b010011111 P
b10011111 O
b10011111 -
#21200
0&
#21300
1&
b01101010 F
b01101010 =
b00000000001101010 R
b000000000001101010 5
b010100000 P
b10100000 O
b10100000 -
#21400
0&
#21500
1&
b01101011 F
b01101011 =
b00000000001101011 R
b000000000001101011 5
b010100001 P
b10100001 O
b10100001 -
#21600
0&
#21700
1&
b01101100 F
b01101100 =
b00000000001101100 R
b000000000001101100 5
b010100010 P
b10100010 O
b10100010 -
#21800
0&
#21900
1&
b01101101 F
b01101101 =
b00000000001101101 R
b000000000001101101 5
b010100011 P
b10100011 O
b10100011 -
#22000
0&
#22100
1&
b01101110 F
b01101110 =
b00000000001101110 R
b000000000001101110 5
b010100100 P
b10100100 O
b10100100 -
#22200
0&
#22300
1&
b01101111 F
b01101111 =
b00000000001101111 R
b000000000001101111 5
b010100101 P
b10100101 O
b10100101 -
#22400
0&
#22500
1&
b01110000 F
b01110000 =
b00000000001110000 R
b000000000001110000 5
b010100110 P
b10100110 O
b10100110 -
#22600
0&
#22700
1&
b01110001 F
b01110001 =
b00000000001110001 R
b000000000001110001 5
b010100111 P
b10100111 O
b10100111 -
#22800
0&
#22900
1&
b01110010 F
b01110010 =
b00000000001110010 R
b000000000001110010 5
b010101000 P
b10101000 O
b10101000 -
#23000
0&
#23100
1&
b01110011 F
b01110011 =
b00000000001110011 R
b000000000001110011 5
b010101001 P
b10101001 O
b10101001 -
#23200
0&
#23300
1&
b01110100 F
b01110100 =
b00000000001110100 R
b000000000001110100 5
b010101010 P
b10101010 O
b10101010 -
#23400
0&
#23500
1&
b01110101 F
b01110101 =
b00000000001110101 R
b000000000001110101 5
b010101011 P
b10101011 O
b10101011 -
#23600
0&
#23700
1&
b01110110 F
b01110110 =
b00000000001110110 R
b000000000001110110 5
b010101100 P
b10101100 O
b10101100 -
#23800
0&
#23900
1&
b01110111 F
b01110111 =
b00000000001110111 R
b000000000001110111 5
b010101101 P
b10101101 O
b10101101 -
#24000
0&
#24100
1&
b01111000 F
b01111000 =
b00000000001111000 R
b000000000001111000 5
b010101110 P
b10101110 O
b10101110 -
#24200
0&
#24300
1&
b01111001 F
b01111001 =
b00000000001111001 R
b000000000001111001 5
b010101111 P
b10101111 O
b10101111 -
#24400
0&
#24500
1&
b01111010 F
b01111010 =
b00000000001111010 R
b000000000001111010 5
b010110000 P
b10110000 O
b10110000 -
#24600
0&
#24700
1&
b01111011 F
b01111011 =
b00000000001111011 R
b000000000001111011 5
b010110001 P
b10110001 O
b10110001 -
#24800
0&
#24900
1&
b01111100 F
b01111100 =
b00000000001111100 R
b000000000001111100 5
b010110010 P
b10110010 O
b10110010 -
#25000
0&
#25100
1&
b01111101 F
b01111101 =
b00000000001111101 R
b000000000001111101 5
b010110011 P
b10110011 O
b10110011 -
#25200
0&
#25300
1&
b01111110 F
b01111110 =
b00000000001111110 R
b000000000001111110 5
b010110100 P
b10110100 O
b10110100 -
#25400
0&
#25500
1&
b01111111 F
b01111111 =
b00000000001111111 R
b000000000001111111 5
b010110101 P
b10110101 O
b10110101 -
#25600
0&
#25700
1&
b10000000 F
b10000000 =
b00000000010000000 R
b000000000010000000 5
b010110110 P
b10110110 O
b10110110 -
#25800
0&
#25900
1&
b10000001 F
b10000001 =
0@
b00000000010000001 R
b000000000010000001 5
b010110111 P
b10110111 O
b10110111 -
0D
b00 H
0K
b00 I
0M
0J
b00000000 Q
#26000
0&
#26100
1&
b10000010 F
b10000010 =
b00000000010000010 R
b000000000010000010 5
#26200
0&
#26300
1&
b10000011 F
b10000011 =
b00000000010000011 R
b000000000010000011 5
#26400
0&
#26500
1&
b10000100 F
b10000100 =
b00000000010000100 R
b000000000010000100 5
#26600
0&
#26700
1&
b10000101 F
b10000101 =
b00000000010000101 R
b000000000010000101 5
#26800
0&
#26900
1&
b10000110 F
b10000110 =
b00000000010000110 R
b000000000010000110 5
#27000
0&
#27100
1&
b10000111 F
b10000111 =
b00000000010000111 R
b000000000010000111 5
#27200
0&
#27300
1&
b10001000 F
b10001000 =
b00000000010001000 R
b000000000010001000 5
#27400
0&
#27500
1&
b10001001 F
b10001001 =
b00000000010001001 R
b000000000010001001 5
#27600
0&
#27700
1&
b10001010 F
b10001010 =
b00000000010001010 R
b000000000010001010 5
#27800
0&
#27900
1&
b10001011 F
b10001011 =
b00000000010001011 R
b000000000010001011 5
#28000
0&
#28100
1&
b10001100 F
b10001100 =
b00000000010001100 R
b000000000010001100 5
#28200
0&
#28300
1&
b10001101 F
b10001101 =
b00000000010001101 R
b000000000010001101 5
#28400
0&
#28500
1&
b10001110 F
b10001110 =
b00000000010001110 R
b000000000010001110 5
#28600
0&
#28700
1&
b10001111 F
b10001111 =
b00000000010001111 R
b000000000010001111 5
#28800
0&
#28900
1&
b10010000 F
b10010000 =
b00000000010010000 R
b000000000010010000 5
#29000
0&
#29100
1&
b10010001 F
b10010001 =
b00000000010010001 R
b000000000010010001 5
#29200
0&
#29300
1&
b10010010 F
b10010010 =
b00000000010010010 R
b000000000010010010 5
#29400
0&
#29500
1&
b10010011 F
b10010011 =
b00000000010010011 R
b000000000010010011 5
#29600
0&
#29700
1&
b10010100 F
b10010100 =
b00000000010010100 R
b000000000010010100 5
#29800
0&
#29900
1&
b10010101 F
b10010101 =
b00000000010010101 R
b000000000010010101 5
#30000
0&
#30100
1&
b10010110 F
b10010110 =
b00000000010010110 R
b000000000010010110 5
#30200
0&
#30300
1&
b10010111 F
b10010111 =
b00000000010010111 R
b000000000010010111 5
#30400
0&
#30500
1&
b10011000 F
b10011000 =
b00000000010011000 R
b000000000010011000 5
#30600
0&
#30700
1&
b10011001 F
b10011001 =
b00000000010011001 R
b000000000010011001 5
#30800
0&
#30900
1&
b10011010 F
b10011010 =
b00000000010011010 R
b000000000010011010 5
#31000
0&
#31100
1&
b10011011 F
b10011011 =
b00000000010011011 R
b000000000010011011 5
#31200
0&
#31300
1&
b10011100 F
b10011100 =
b00000000010011100 R
b000000000010011100 5
#31400
0&
#31500
1&
b10011101 F
b10011101 =
b00000000010011101 R
b000000000010011101 5
#31600
0&
#31700
1&
b10011110 F
b10011110 =
b00000000010011110 R
b000000000010011110 5
#31800
0&
#31900
1&
b10011111 F
b10011111 =
b00000000010011111 R
b000000000010011111 5
#32000
0&
#32100
1&
b10100000 F
b10100000 =
b00000000010100000 R
b000000000010100000 5
#32200
0&
#32300
1&
b10100001 F
b10100001 =
b00000000010100001 R
b000000000010100001 5
#32400
0&
#32500
1&
b10100010 F
b10100010 =
b00000000010100010 R
b000000000010100010 5
#32600
0&
#32700
1&
b10100011 F
b10100011 =
b00000000010100011 R
b000000000010100011 5
#32800
0&
#32900
1&
b10100100 F
b10100100 =
b00000000010100100 R
b000000000010100100 5
#33000
0&
#33100
1&
b10100101 F
b10100101 =
b00000000010100101 R
b000000000010100101 5
#33200
0&
#33300
1&
b10100110 F
b10100110 =
b00000000010100110 R
b000000000010100110 5
#33400
0&
#33500
1&
b10100111 F
b10100111 =
b00000000010100111 R
b000000000010100111 5
#33600
0&
#33700
1&
b10101000 F
b10101000 =
b00000000010101000 R
b000000000010101000 5
#33800
0&
#33900
1&
b10101001 F
b10101001 =
b00000000010101001 R
b000000000010101001 5
#34000
0&
#34100
1&
b10101010 F
b10101010 =
b00000000010101010 R
b000000000010101010 5
#34200
0&
#34300
1&
b10101011 F
b10101011 =
b00000000010101011 R
b000000000010101011 5
#34400
0&
#34500
1&
b10101100 F
b10101100 =
b00000000010101100 R
b000000000010101100 5
#34600
0&
#34700
1&
b10101101 F
b10101101 =
b00000000010101101 R
b000000000010101101 5
#34800
0&
#34900
1&
b10101110 F
b10101110 =
b00000000010101110 R
b000000000010101110 5
#35000
0&
#35100
1&
b10101111 F
b10101111 =
b00000000010101111 R
b000000000010101111 5
#35200
0&
#35300
1&
b10110000 F
b10110000 =
b00000000010110000 R
b000000000010110000 5
#35400
0&
#35500
1&
b10110001 F
b10110001 =
b00000000010110001 R
b000000000010110001 5
#35600
0&
#35700
1&
b10110010 F
b10110010 =
b00000000010110010 R
b000000000010110010 5
#35800
0&
#35900
1&
b10110011 F
b10110011 =
b00000000010110011 R
b000000000010110011 5
#36000
0&
#36100
1&
b10110100 F
b10110100 =
b00000000010110100 R
b000000000010110100 5
#36200
0&
#36300
1&
b10110101 F
b10110101 =
b00000000010110101 R
b000000000010110101 5
#36400
0&
#36500
1&
b10110110 F
b10110110 =
b00000000010110110 R
b000000000010110110 5
#36600
0&
#36700
1&
b10110111 F
b10110111 =
b00000000010110111 R
b000000000010110111 5
#36800
0&
#36900
1&
b10111000 F
b10111000 =
b00000000010111000 R
b000000000010111000 5
#37000
0&
#37100
1&
b10111001 F
b10111001 =
b00000000010111001 R
b000000000010111001 5
#37200
0&
#37300
1&
b10111010 F
b10111010 =
b00000000010111010 R
b000000000010111010 5
#37400
0&
#37500
1&
b10111011 F
b10111011 =
b00000000010111011 R
b000000000010111011 5
#37600
0&
#37700
1&
b10111100 F
b10111100 =
b00000000010111100 R
b000000000010111100 5
#37800
0&
#37900
1&
b10111101 F
b10111101 =
b00000000010111101 R
b000000000010111101 5
#38000
0&
#38100
1&
b10111110 F
b10111110 =
b00000000010111110 R
b000000000010111110 5
#38200
0&
#38300
1&
b10111111 F
b10111111 =
b00000000010111111 R
b000000000010111111 5
#38400
0&
#38500
1&
b11000000 F
b11000000 =
b00000000011000000 R
b000000000011000000 5
#38600
0&
#38700
1&
b11000001 F
b11000001 =
b00000000011000001 R
b000000000011000001 5
#38800
0&
#38900
1&
b11000010 F
b11000010 =
b00000000011000010 R
b000000000011000010 5
#39000
0&
#39100
1&
b11000011 F
b11000011 =
b00000000011000011 R
b000000000011000011 5
#39200
0&
#39300
1&
b11000100 F
b11000100 =
b00000000011000100 R
b000000000011000100 5
#39400
0&
#39500
1&
b11000101 F
b11000101 =
b00000000011000101 R
b000000000011000101 5
#39600
0&
#39700
1&
b11000110 F
b11000110 =
b00000000011000110 R
b000000000011000110 5
#39800
0&
#39900
1&
b11000111 F
b11000111 =
b00000000011000111 R
b000000000011000111 5
#40000
0&
#40100
1&
b11001000 F
b11001000 =
b00000000011001000 R
b000000000011001000 5
#40200
0&
